dplyr::filter() 中的表达式 | BIO-SPRING
…
## The following objects are masked from 'package:stats':
## 
##     filter, lag

## The following objects are masked from 'package:base':
## 
##     intersect, setdiff, setequal, union

set.seed(0)
tbl = tibble(x = sample(letters, 60, TRUE), y = 1:60)
tbl

## # A tibble: 60 × 2
##    x         y
##    <chr> <int>
##  1 n         1
##  2 y         2
##  3 d         3
##  4 g         4
##  5 a         5
##  6 b         6
##  7 w         7
##  8 k         8
##  9 n         9
## 10 r        10
## # ℹ 50 more rows
…
但是，如果变量与列名相同，则会出现意想不到的结果。实际上，它执行了 filter(tbl, .data$x %in% .data$x) 的骚操作。

x = c("a","b","c")
filter(tbl, .data$x %in% x)

## # A tibble: 60 × 2
##    x         y
##    <chr> <int>
##  1 n         1
##  2 y         2
##  3 d         3
##  4 g         4
##  5 a         5
##  6 b         6
##  7 w         7
##  8 k         8
##  9 n         9
## 10 r        10
## # ℹ 50 more rows
…
filter(tbl, .data$x %in% .env$x)

## # A tibble: 6 × 2
##   x         y
##   <chr> <int>
## 1 a         5
## 2 b         6
## 3 a        12
## 4 b        29
## 5 a        34
## 6 c        36

filter(tbl, .data$x %in% get("x"))

## # A tibble: 60 × 2
##    x         y
##    <chr> <int>
##  1 n         1
##  2 y         2
##  3 d         3
##  4 g         4
##  5 a         5
##  6 b         6
##  7 w         7
##  8 k         8
##  9 n         9
## 10 r        10
## # ℹ 50 more rows
…
